^C:\USERS\SHAHZAM\DESKTOP\FDGDG\UTILS\VMT.CPP
/c /ZI /JMC /nologo /W3 /WX- /diagnostics:classic /sdl /Od /Oy- /D _CRT_SECURE_NO_WARNINGS /D _WINDLL /D _MBCS /Gm- /EHsc /RTC1 /MDd /GS /fp:precise /Zc:wchar_t /Zc:forScope /Zc:inline /Fo"DEBUG\\" /Fd"DEBUG\VC141.PDB" /Gd /TP /analyze- /FC C:\USERS\SHAHZAM\DESKTOP\FDGDG\UTILS\VMT.CPP
^C:\USERS\SHAHZAM\DESKTOP\FDGDG\IMGUI\DX9\IMGUI_IMPL_DX9.CPP
/c /ZI /JMC /nologo /W3 /WX- /diagnostics:classic /sdl /Od /Oy- /D _CRT_SECURE_NO_WARNINGS /D _WINDLL /D _MBCS /Gm- /EHsc /RTC1 /MDd /GS /fp:precise /Zc:wchar_t /Zc:forScope /Zc:inline /Fo"DEBUG\\" /Fd"DEBUG\VC141.PDB" /Gd /TP /analyze- /FC C:\USERS\SHAHZAM\DESKTOP\FDGDG\IMGUI\DX9\IMGUI_IMPL_DX9.CPP
^C:\USERS\SHAHZAM\DESKTOP\FDGDG\IMGUI\IMGUI.CPP
/c /ZI /JMC /nologo /W3 /WX- /diagnostics:classic /sdl /Od /Oy- /D _CRT_SECURE_NO_WARNINGS /D _WINDLL /D _MBCS /Gm- /EHsc /RTC1 /MDd /GS /fp:precise /Zc:wchar_t /Zc:forScope /Zc:inline /Fo"DEBUG\\" /Fd"DEBUG\VC141.PDB" /Gd /TP /analyze- /FC C:\USERS\SHAHZAM\DESKTOP\FDGDG\IMGUI\IMGUI.CPP
^C:\USERS\SHAHZAM\DESKTOP\FDGDG\IMGUI\IMGUI_DRAW.CPP
/c /ZI /JMC /nologo /W3 /WX- /diagnostics:classic /sdl /Od /Oy- /D _CRT_SECURE_NO_WARNINGS /D _WINDLL /D _MBCS /Gm- /EHsc /RTC1 /MDd /GS /fp:precise /Zc:wchar_t /Zc:forScope /Zc:inline /Fo"DEBUG\\" /Fd"DEBUG\VC141.PDB" /Gd /TP /analyze- /FC C:\USERS\SHAHZAM\DESKTOP\FDGDG\IMGUI\IMGUI_DRAW.CPP
^C:\USERS\SHAHZAM\DESKTOP\FDGDG\FEATURES\AUTOWALL.CPP
/c /ZI /JMC /nologo /W3 /WX- /diagnostics:classic /sdl /Od /Oy- /D _CRT_SECURE_NO_WARNINGS /D _WINDLL /D _MBCS /Gm- /EHsc /RTC1 /MDd /GS /fp:precise /Zc:wchar_t /Zc:forScope /Zc:inline /Fo"DEBUG\\" /Fd"DEBUG\VC141.PDB" /Gd /TP /analyze- /FC C:\USERS\SHAHZAM\DESKTOP\FDGDG\FEATURES\AUTOWALL.CPP
^C:\USERS\SHAHZAM\DESKTOP\FDGDG\FEATURES\BACKTRACKING.CPP
/c /ZI /JMC /nologo /W3 /WX- /diagnostics:classic /sdl /Od /Oy- /D _CRT_SECURE_NO_WARNINGS /D _WINDLL /D _MBCS /Gm- /EHsc /RTC1 /MDd /GS /fp:precise /Zc:wchar_t /Zc:forScope /Zc:inline /Fo"DEBUG\\" /Fd"DEBUG\VC141.PDB" /Gd /TP /analyze- /FC C:\USERS\SHAHZAM\DESKTOP\FDGDG\FEATURES\BACKTRACKING.CPP
^C:\USERS\SHAHZAM\DESKTOP\FDGDG\FEATURES\CHAMS.CPP
/c /ZI /JMC /nologo /W3 /WX- /diagnostics:classic /sdl /Od /Oy- /D _CRT_SECURE_NO_WARNINGS /D _WINDLL /D _MBCS /Gm- /EHsc /RTC1 /MDd /GS /fp:precise /Zc:wchar_t /Zc:forScope /Zc:inline /Fo"DEBUG\\" /Fd"DEBUG\VC141.PDB" /Gd /TP /analyze- /FC C:\USERS\SHAHZAM\DESKTOP\FDGDG\FEATURES\CHAMS.CPP
^C:\USERS\SHAHZAM\DESKTOP\FDGDG\FEATURES\D9VISUALS.CPP
/c /ZI /JMC /nologo /W3 /WX- /diagnostics:classic /sdl /Od /Oy- /D _CRT_SECURE_NO_WARNINGS /D _WINDLL /D _MBCS /Gm- /EHsc /RTC1 /MDd /GS /fp:precise /Zc:wchar_t /Zc:forScope /Zc:inline /Fo"DEBUG\\" /Fd"DEBUG\VC141.PDB" /Gd /TP /analyze- /FC C:\USERS\SHAHZAM\DESKTOP\FDGDG\FEATURES\D9VISUALS.CPP
^C:\USERS\SHAHZAM\DESKTOP\FDGDG\FEATURES\ENGINEPRED.CPP
/c /ZI /JMC /nologo /W3 /WX- /diagnostics:classic /sdl /Od /Oy- /D _CRT_SECURE_NO_WARNINGS /D _WINDLL /D _MBCS /Gm- /EHsc /RTC1 /MDd /GS /fp:precise /Zc:wchar_t /Zc:forScope /Zc:inline /Fo"DEBUG\\" /Fd"DEBUG\VC141.PDB" /Gd /TP /analyze- /FC C:\USERS\SHAHZAM\DESKTOP\FDGDG\FEATURES\ENGINEPRED.CPP
^C:\USERS\SHAHZAM\DESKTOP\FDGDG\FEATURES\EVENTLISTENER.CPP
/c /ZI /JMC /nologo /W3 /WX- /diagnostics:classic /sdl /Od /Oy- /D _CRT_SECURE_NO_WARNINGS /D _WINDLL /D _MBCS /Gm- /EHsc /RTC1 /MDd /GS /fp:precise /Zc:wchar_t /Zc:forScope /Zc:inline /Fo"DEBUG\\" /Fd"DEBUG\VC141.PDB" /Gd /TP /analyze- /FC C:\USERS\SHAHZAM\DESKTOP\FDGDG\FEATURES\EVENTLISTENER.CPP
^C:\USERS\SHAHZAM\DESKTOP\FDGDG\FEATURES\FAKELAG.CPP
/c /ZI /JMC /nologo /W3 /WX- /diagnostics:classic /sdl /Od /Oy- /D _CRT_SECURE_NO_WARNINGS /D _WINDLL /D _MBCS /Gm- /EHsc /RTC1 /MDd /GS /fp:precise /Zc:wchar_t /Zc:forScope /Zc:inline /Fo"DEBUG\\" /Fd"DEBUG\VC141.PDB" /Gd /TP /analyze- /FC C:\USERS\SHAHZAM\DESKTOP\FDGDG\FEATURES\FAKELAG.CPP
^C:\USERS\SHAHZAM\DESKTOP\FDGDG\FEATURES\FAKEWALK.CPP
/c /ZI /JMC /nologo /W3 /WX- /diagnostics:classic /sdl /Od /Oy- /D _CRT_SECURE_NO_WARNINGS /D _WINDLL /D _MBCS /Gm- /EHsc /RTC1 /MDd /GS /fp:precise /Zc:wchar_t /Zc:forScope /Zc:inline /Fo"DEBUG\\" /Fd"DEBUG\VC141.PDB" /Gd /TP /analyze- /FC C:\USERS\SHAHZAM\DESKTOP\FDGDG\FEATURES\FAKEWALK.CPP
^C:\USERS\SHAHZAM\DESKTOP\FDGDG\FEATURES\FLASHLIGHT.CPP
/c /ZI /JMC /nologo /W3 /WX- /diagnostics:classic /sdl /Od /Oy- /D _CRT_SECURE_NO_WARNINGS /D _WINDLL /D _MBCS /Gm- /EHsc /RTC1 /MDd /GS /fp:precise /Zc:wchar_t /Zc:forScope /Zc:inline /Fo"DEBUG\\" /Fd"DEBUG\VC141.PDB" /Gd /TP /analyze- /FC C:\USERS\SHAHZAM\DESKTOP\FDGDG\FEATURES\FLASHLIGHT.CPP
^C:\USERS\SHAHZAM\DESKTOP\FDGDG\FEATURES\GLOVECHANGER.CPP
/c /ZI /JMC /nologo /W3 /WX- /diagnostics:classic /sdl /Od /Oy- /D _CRT_SECURE_NO_WARNINGS /D _WINDLL /D _MBCS /Gm- /EHsc /RTC1 /MDd /GS /fp:precise /Zc:wchar_t /Zc:forScope /Zc:inline /Fo"DEBUG\\" /Fd"DEBUG\VC141.PDB" /Gd /TP /analyze- /FC C:\USERS\SHAHZAM\DESKTOP\FDGDG\FEATURES\GLOVECHANGER.CPP
^C:\USERS\SHAHZAM\DESKTOP\FDGDG\FEATURES\LEGITBOT.CPP
/c /ZI /JMC /nologo /W3 /WX- /diagnostics:classic /sdl /Od /Oy- /D _CRT_SECURE_NO_WARNINGS /D _WINDLL /D _MBCS /Gm- /EHsc /RTC1 /MDd /GS /fp:precise /Zc:wchar_t /Zc:forScope /Zc:inline /Fo"DEBUG\\" /Fd"DEBUG\VC141.PDB" /Gd /TP /analyze- /FC C:\USERS\SHAHZAM\DESKTOP\FDGDG\FEATURES\LEGITBOT.CPP
^C:\USERS\SHAHZAM\DESKTOP\FDGDG\FEATURES\MOVEMENT.CPP
/c /ZI /JMC /nologo /W3 /WX- /diagnostics:classic /sdl /Od /Oy- /D _CRT_SECURE_NO_WARNINGS /D _WINDLL /D _MBCS /Gm- /EHsc /RTC1 /MDd /GS /fp:precise /Zc:wchar_t /Zc:forScope /Zc:inline /Fo"DEBUG\\" /Fd"DEBUG\VC141.PDB" /Gd /TP /analyze- /FC C:\USERS\SHAHZAM\DESKTOP\FDGDG\FEATURES\MOVEMENT.CPP
^C:\USERS\SHAHZAM\DESKTOP\FDGDG\FEATURES\NEWEVENTLOG.CPP
/c /ZI /JMC /nologo /W3 /WX- /diagnostics:classic /sdl /Od /Oy- /D _CRT_SECURE_NO_WARNINGS /D _WINDLL /D _MBCS /Gm- /EHsc /RTC1 /MDd /GS /fp:precise /Zc:wchar_t /Zc:forScope /Zc:inline /Fo"DEBUG\\" /Fd"DEBUG\VC141.PDB" /Gd /TP /analyze- /FC C:\USERS\SHAHZAM\DESKTOP\FDGDG\FEATURES\NEWEVENTLOG.CPP
^C:\USERS\SHAHZAM\DESKTOP\FDGDG\FEATURES\RESOLVER.CPP
/c /ZI /JMC /nologo /W3 /WX- /diagnostics:classic /sdl /Od /Oy- /D _CRT_SECURE_NO_WARNINGS /D _WINDLL /D _MBCS /Gm- /EHsc /RTC1 /MDd /GS /fp:precise /Zc:wchar_t /Zc:forScope /Zc:inline /Fo"DEBUG\\" /Fd"DEBUG\VC141.PDB" /Gd /TP /analyze- /FC C:\USERS\SHAHZAM\DESKTOP\FDGDG\FEATURES\RESOLVER.CPP
^C:\USERS\SHAHZAM\DESKTOP\FDGDG\FEATURES\SKINCHANGER.CPP
/c /ZI /JMC /nologo /W3 /WX- /diagnostics:classic /sdl /Od /Oy- /D _CRT_SECURE_NO_WARNINGS /D _WINDLL /D _MBCS /Gm- /EHsc /RTC1 /MDd /GS /fp:precise /Zc:wchar_t /Zc:forScope /Zc:inline /Fo"DEBUG\\" /Fd"DEBUG\VC141.PDB" /Gd /TP /analyze- /FC C:\USERS\SHAHZAM\DESKTOP\FDGDG\FEATURES\SKINCHANGER.CPP
^C:\USERS\SHAHZAM\DESKTOP\FDGDG\FEATURES\STICKERCHANGER.CPP
/c /ZI /JMC /nologo /W3 /WX- /diagnostics:classic /sdl /Od /Oy- /D _CRT_SECURE_NO_WARNINGS /D _WINDLL /D _MBCS /Gm- /EHsc /RTC1 /MDd /GS /fp:precise /Zc:wchar_t /Zc:forScope /Zc:inline /Fo"DEBUG\\" /Fd"DEBUG\VC141.PDB" /Gd /TP /analyze- /FC C:\USERS\SHAHZAM\DESKTOP\FDGDG\FEATURES\STICKERCHANGER.CPP
^C:\USERS\SHAHZAM\DESKTOP\FDGDG\FEATURES\RECV.CPP
/c /ZI /JMC /nologo /W3 /WX- /diagnostics:classic /sdl /Od /Oy- /D _CRT_SECURE_NO_WARNINGS /D _WINDLL /D _MBCS /Gm- /EHsc /RTC1 /MDd /GS /fp:precise /Zc:wchar_t /Zc:forScope /Zc:inline /Fo"DEBUG\\" /Fd"DEBUG\VC141.PDB" /Gd /TP /analyze- /FC C:\USERS\SHAHZAM\DESKTOP\FDGDG\FEATURES\RECV.CPP
^C:\USERS\SHAHZAM\DESKTOP\FDGDG\SDK\CGLOBALVARS.CPP
/c /ZI /JMC /nologo /W3 /WX- /diagnostics:classic /sdl /Od /Oy- /D _CRT_SECURE_NO_WARNINGS /D _WINDLL /D _MBCS /Gm- /EHsc /RTC1 /MDd /GS /fp:precise /Zc:wchar_t /Zc:forScope /Zc:inline /Fo"DEBUG\\" /Fd"DEBUG\VC141.PDB" /Gd /TP /analyze- /FC C:\USERS\SHAHZAM\DESKTOP\FDGDG\SDK\CGLOBALVARS.CPP
^C:\USERS\SHAHZAM\DESKTOP\FDGDG\SDK\SDK.CPP
/c /ZI /JMC /nologo /W3 /WX- /diagnostics:classic /sdl /Od /Oy- /D _CRT_SECURE_NO_WARNINGS /D _WINDLL /D _MBCS /Gm- /EHsc /RTC1 /MDd /GS /fp:precise /Zc:wchar_t /Zc:forScope /Zc:inline /Fo"DEBUG\\" /Fd"DEBUG\VC141.PDB" /Gd /TP /analyze- /FC C:\USERS\SHAHZAM\DESKTOP\FDGDG\SDK\SDK.CPP
^C:\USERS\SHAHZAM\DESKTOP\FDGDG\UTILS\NETVARHOOKMANAGER.CPP
/c /ZI /JMC /nologo /W3 /WX- /diagnostics:classic /sdl /Od /Oy- /D _CRT_SECURE_NO_WARNINGS /D _WINDLL /D _MBCS /Gm- /EHsc /RTC1 /MDd /GS /fp:precise /Zc:wchar_t /Zc:forScope /Zc:inline /Fo"DEBUG\\" /Fd"DEBUG\VC141.PDB" /Gd /TP /analyze- /FC C:\USERS\SHAHZAM\DESKTOP\FDGDG\UTILS\NETVARHOOKMANAGER.CPP
^C:\USERS\SHAHZAM\DESKTOP\FDGDG\UTILS\GENERAL_UTILS.CPP
/c /ZI /JMC /nologo /W3 /WX- /diagnostics:classic /sdl /Od /Oy- /D _CRT_SECURE_NO_WARNINGS /D _WINDLL /D _MBCS /Gm- /EHsc /RTC1 /MDd /GS /fp:precise /Zc:wchar_t /Zc:forScope /Zc:inline /Fo"DEBUG\\" /Fd"DEBUG\VC141.PDB" /Gd /TP /analyze- /FC C:\USERS\SHAHZAM\DESKTOP\FDGDG\UTILS\GENERAL_UTILS.CPP
^C:\USERS\SHAHZAM\DESKTOP\FDGDG\UTILS\INPUT_HANDLER.CPP
/c /ZI /JMC /nologo /W3 /WX- /diagnostics:classic /sdl /Od /Oy- /D _CRT_SECURE_NO_WARNINGS /D _WINDLL /D _MBCS /Gm- /EHsc /RTC1 /MDd /GS /fp:precise /Zc:wchar_t /Zc:forScope /Zc:inline /Fo"DEBUG\\" /Fd"DEBUG\VC141.PDB" /Gd /TP /analyze- /FC C:\USERS\SHAHZAM\DESKTOP\FDGDG\UTILS\INPUT_HANDLER.CPP
^C:\USERS\SHAHZAM\DESKTOP\FDGDG\UTILS\INTERFACES.CPP
/c /ZI /JMC /nologo /W3 /WX- /diagnostics:classic /sdl /Od /Oy- /D _CRT_SECURE_NO_WARNINGS /D _WINDLL /D _MBCS /Gm- /EHsc /RTC1 /MDd /GS /fp:precise /Zc:wchar_t /Zc:forScope /Zc:inline /Fo"DEBUG\\" /Fd"DEBUG\VC141.PDB" /Gd /TP /analyze- /FC C:\USERS\SHAHZAM\DESKTOP\FDGDG\UTILS\INTERFACES.CPP
^C:\USERS\SHAHZAM\DESKTOP\FDGDG\UTILS\LOGGING.CPP
/c /ZI /JMC /nologo /W3 /WX- /diagnostics:classic /sdl /Od /Oy- /D _CRT_SECURE_NO_WARNINGS /D _WINDLL /D _MBCS /Gm- /EHsc /RTC1 /MDd /GS /fp:precise /Zc:wchar_t /Zc:forScope /Zc:inline /Fo"DEBUG\\" /Fd"DEBUG\VC141.PDB" /Gd /TP /analyze- /FC C:\USERS\SHAHZAM\DESKTOP\FDGDG\UTILS\LOGGING.CPP
^C:\USERS\SHAHZAM\DESKTOP\FDGDG\UTILS\MATH.CPP
/c /ZI /JMC /nologo /W3 /WX- /diagnostics:classic /sdl /Od /Oy- /D _CRT_SECURE_NO_WARNINGS /D _WINDLL /D _MBCS /Gm- /EHsc /RTC1 /MDd /GS /fp:precise /Zc:wchar_t /Zc:forScope /Zc:inline /Fo"DEBUG\\" /Fd"DEBUG\VC141.PDB" /Gd /TP /analyze- /FC C:\USERS\SHAHZAM\DESKTOP\FDGDG\UTILS\MATH.CPP
^C:\USERS\SHAHZAM\DESKTOP\FDGDG\UTILS\OFFSETS.CPP
/c /ZI /JMC /nologo /W3 /WX- /diagnostics:classic /sdl /Od /Oy- /D _CRT_SECURE_NO_WARNINGS /D _WINDLL /D _MBCS /Gm- /EHsc /RTC1 /MDd /GS /fp:precise /Zc:wchar_t /Zc:forScope /Zc:inline /Fo"DEBUG\\" /Fd"DEBUG\VC141.PDB" /Gd /TP /analyze- /FC C:\USERS\SHAHZAM\DESKTOP\FDGDG\UTILS\OFFSETS.CPP
^C:\USERS\SHAHZAM\DESKTOP\FDGDG\UTILS\RENDER.CPP
/c /ZI /JMC /nologo /W3 /WX- /diagnostics:classic /sdl /Od /Oy- /D _CRT_SECURE_NO_WARNINGS /D _WINDLL /D _MBCS /Gm- /EHsc /RTC1 /MDd /GS /fp:precise /Zc:wchar_t /Zc:forScope /Zc:inline /Fo"DEBUG\\" /Fd"DEBUG\VC141.PDB" /Gd /TP /analyze- /FC C:\USERS\SHAHZAM\DESKTOP\FDGDG\UTILS\RENDER.CPP
^C:\USERS\SHAHZAM\DESKTOP\FDGDG\UTILS\SPOOFEDCONVAR.CPP
/c /ZI /JMC /nologo /W3 /WX- /diagnostics:classic /sdl /Od /Oy- /D _CRT_SECURE_NO_WARNINGS /D _WINDLL /D _MBCS /Gm- /EHsc /RTC1 /MDd /GS /fp:precise /Zc:wchar_t /Zc:forScope /Zc:inline /Fo"DEBUG\\" /Fd"DEBUG\VC141.PDB" /Gd /TP /analyze- /FC C:\USERS\SHAHZAM\DESKTOP\FDGDG\UTILS\SPOOFEDCONVAR.CPP
^C:\USERS\SHAHZAM\DESKTOP\FDGDG\UTILS\VARIABLES.CPP
/c /ZI /JMC /nologo /W3 /WX- /diagnostics:classic /sdl /Od /Oy- /D _CRT_SECURE_NO_WARNINGS /D _WINDLL /D _MBCS /Gm- /EHsc /RTC1 /MDd /GS /fp:precise /Zc:wchar_t /Zc:forScope /Zc:inline /Fo"DEBUG\\" /Fd"DEBUG\VC141.PDB" /Gd /TP /analyze- /FC C:\USERS\SHAHZAM\DESKTOP\FDGDG\UTILS\VARIABLES.CPP
^C:\USERS\SHAHZAM\DESKTOP\FDGDG\HITMARKER.CPP
/c /ZI /JMC /nologo /W3 /WX- /diagnostics:classic /sdl /Od /Oy- /D _CRT_SECURE_NO_WARNINGS /D _WINDLL /D _MBCS /Gm- /EHsc /RTC1 /MDd /GS /fp:precise /Zc:wchar_t /Zc:forScope /Zc:inline /Fo"DEBUG\\" /Fd"DEBUG\VC141.PDB" /Gd /TP /analyze- /FC C:\USERS\SHAHZAM\DESKTOP\FDGDG\HITMARKER.CPP
^C:\USERS\SHAHZAM\DESKTOP\FDGDG\NIGHTMODE.CPP
/c /ZI /JMC /nologo /W3 /WX- /diagnostics:classic /sdl /Od /Oy- /D _CRT_SECURE_NO_WARNINGS /D _WINDLL /D _MBCS /Gm- /EHsc /RTC1 /MDd /GS /fp:precise /Zc:wchar_t /Zc:forScope /Zc:inline /Fo"DEBUG\\" /Fd"DEBUG\VC141.PDB" /Gd /TP /analyze- /FC C:\USERS\SHAHZAM\DESKTOP\FDGDG\NIGHTMODE.CPP
^C:\USERS\SHAHZAM\DESKTOP\FDGDG\RESOLVER.CPP
/c /ZI /JMC /nologo /W3 /WX- /diagnostics:classic /sdl /Od /Oy- /D _CRT_SECURE_NO_WARNINGS /D _WINDLL /D _MBCS /Gm- /EHsc /RTC1 /MDd /GS /fp:precise /Zc:wchar_t /Zc:forScope /Zc:inline /Fo"DEBUG\\" /Fd"DEBUG\VC141.PDB" /Gd /TP /analyze- /FC C:\USERS\SHAHZAM\DESKTOP\FDGDG\RESOLVER.CPP
^C:\USERS\SHAHZAM\DESKTOP\FDGDG\FEATURES\VISUALS.CPP
/c /ZI /JMC /nologo /W3 /WX- /diagnostics:classic /sdl /Od /Oy- /D _CRT_SECURE_NO_WARNINGS /D _WINDLL /D _MBCS /Gm- /EHsc /RTC1 /MDd /GS /fp:precise /Zc:wchar_t /Zc:forScope /Zc:inline /Fo"DEBUG\\" /Fd"DEBUG\VC141.PDB" /Gd /TP /analyze- /FC C:\USERS\SHAHZAM\DESKTOP\FDGDG\FEATURES\VISUALS.CPP
^C:\USERS\SHAHZAM\DESKTOP\FDGDG\FEATURES\AIMBOT.CPP
/c /ZI /JMC /nologo /W3 /WX- /diagnostics:classic /sdl /Od /Oy- /D _CRT_SECURE_NO_WARNINGS /D _WINDLL /D _MBCS /Gm- /EHsc /RTC1 /MDd /GS /fp:precise /Zc:wchar_t /Zc:forScope /Zc:inline /Fo"DEBUG\\" /Fd"DEBUG\VC141.PDB" /Gd /TP /analyze- /FC C:\USERS\SHAHZAM\DESKTOP\FDGDG\FEATURES\AIMBOT.CPP
^C:\USERS\SHAHZAM\DESKTOP\FDGDG\FEATURES\ANTIAIM.CPP
/c /ZI /JMC /nologo /W3 /WX- /diagnostics:classic /sdl /Od /Oy- /D _CRT_SECURE_NO_WARNINGS /D _WINDLL /D _MBCS /Gm- /EHsc /RTC1 /MDd /GS /fp:precise /Zc:wchar_t /Zc:forScope /Zc:inline /Fo"DEBUG\\" /Fd"DEBUG\VC141.PDB" /Gd /TP /analyze- /FC C:\USERS\SHAHZAM\DESKTOP\FDGDG\FEATURES\ANTIAIM.CPP
^C:\USERS\SHAHZAM\DESKTOP\FDGDG\FEATURES\GRENADEPREDICTION.CPP
/c /ZI /JMC /nologo /W3 /WX- /diagnostics:classic /sdl /Od /Oy- /D _CRT_SECURE_NO_WARNINGS /D _WINDLL /D _MBCS /Gm- /EHsc /RTC1 /MDd /GS /fp:precise /Zc:wchar_t /Zc:forScope /Zc:inline /Fo"DEBUG\\" /Fd"DEBUG\VC141.PDB" /Gd /TP /analyze- /FC C:\USERS\SHAHZAM\DESKTOP\FDGDG\FEATURES\GRENADEPREDICTION.CPP
^C:\USERS\SHAHZAM\DESKTOP\FDGDG\MAIN.CPP
/c /ZI /JMC /nologo /W3 /WX- /diagnostics:classic /sdl /Od /Oy- /D _CRT_SECURE_NO_WARNINGS /D _WINDLL /D _MBCS /Gm- /EHsc /RTC1 /MDd /GS /fp:precise /Zc:wchar_t /Zc:forScope /Zc:inline /Fo"DEBUG\\" /Fd"DEBUG\VC141.PDB" /Gd /TP /analyze- /FC C:\USERS\SHAHZAM\DESKTOP\FDGDG\MAIN.CPP
^C:\USERS\SHAHZAM\DESKTOP\FDGDG\CHEATS\VISUALS\PLAYER_ESP.CPP
/c /ZI /JMC /nologo /W3 /WX- /diagnostics:classic /sdl /Od /Oy- /D _CRT_SECURE_NO_WARNINGS /D _WINDLL /D _MBCS /Gm- /EHsc /RTC1 /MDd /GS /fp:precise /Zc:wchar_t /Zc:forScope /Zc:inline /Fo"DEBUG\\" /Fd"DEBUG\VC141.PDB" /Gd /TP /analyze- /FC C:\USERS\SHAHZAM\DESKTOP\FDGDG\CHEATS\VISUALS\PLAYER_ESP.CPP
^C:\USERS\SHAHZAM\DESKTOP\FDGDG\CHEATS\VISUALS\OTHER_ESP.CPP
/c /ZI /JMC /nologo /W3 /WX- /diagnostics:classic /sdl /Od /Oy- /D _CRT_SECURE_NO_WARNINGS /D _WINDLL /D _MBCS /Gm- /EHsc /RTC1 /MDd /GS /fp:precise /Zc:wchar_t /Zc:forScope /Zc:inline /Fo"DEBUG\\" /Fd"DEBUG\VC141.PDB" /Gd /TP /analyze- /FC C:\USERS\SHAHZAM\DESKTOP\FDGDG\CHEATS\VISUALS\OTHER_ESP.CPP
^C:\USERS\SHAHZAM\DESKTOP\FDGDG\CHEATS\RAGE BOT\RESOLVER.CPP
/c /ZI /JMC /nologo /W3 /WX- /diagnostics:classic /sdl /Od /Oy- /D _CRT_SECURE_NO_WARNINGS /D _WINDLL /D _MBCS /Gm- /EHsc /RTC1 /MDd /GS /fp:precise /Zc:wchar_t /Zc:forScope /Zc:inline /Fo"DEBUG\\" /Fd"DEBUG\VC141.PDB" /Gd /TP /analyze- /FC C:\USERS\SHAHZAM\DESKTOP\FDGDG\CHEATS\RAGE BOT\RESOLVER.CPP
^C:\USERS\SHAHZAM\DESKTOP\FDGDG\HOOKS\HOOKS.CPP
/c /ZI /JMC /nologo /W3 /WX- /diagnostics:classic /sdl /Od /Oy- /D _CRT_SECURE_NO_WARNINGS /D _WINDLL /D _MBCS /Gm- /EHsc /RTC1 /MDd /GS /fp:precise /Zc:wchar_t /Zc:forScope /Zc:inline /Fo"DEBUG\\" /Fd"DEBUG\VC141.PDB" /Gd /TP /analyze- /FC C:\USERS\SHAHZAM\DESKTOP\FDGDG\HOOKS\HOOKS.CPP
^C:\USERS\SHAHZAM\DESKTOP\FDGDG\CHEATS\VISUALS\WORLD_ESP.CPP
/c /ZI /JMC /nologo /W3 /WX- /diagnostics:classic /sdl /Od /Oy- /D _CRT_SECURE_NO_WARNINGS /D _WINDLL /D _MBCS /Gm- /EHsc /RTC1 /MDd /GS /fp:precise /Zc:wchar_t /Zc:forScope /Zc:inline /Fo"DEBUG\\" /Fd"DEBUG\VC141.PDB" /Gd /TP /analyze- /FC C:\USERS\SHAHZAM\DESKTOP\FDGDG\CHEATS\VISUALS\WORLD_ESP.CPP
